L3 plan
…
Wide instead of Long data

Maybe that colleague isnt happy with the long format data (analyte and result column). Maybe they want a wide format where each analyte has its own column. What a pain in excel, but fear not! tidyverse is here

data_wide <- data1 %>% pivot_wider(names_from = Analyte, values_from = Result)

data1[,-3] %>% pivot_wider(names_from = Analyte, values_from = Result)  # example issue, remove the time column

## Warning: Values are not uniquely identified; output will contain list-cols.
## * Use `values_fn = list` to suppress this warning.
## * Use `values_fn = length` to identify where the duplicates arise
## * Use `values_fn = {summary_fun}` to summarise duplicates

## # A tibble: 332 x 9
##    Site    Date       Treatment   pH      Alkalinity DOC     SO4     MeHg  Hg   
##    <chr>   <date>     <ord>       <list>  <list>     <list>  <list>  <lis> <lis>
##  1 Refere~ 2011-05-16 Pre-Treatm~ <dbl [~ <dbl [1]>  <dbl [~ <dbl [~ <NUL~ <NUL~
##  2 Refere~ 2011-06-06 Pre-Treatm~ <dbl [~ <dbl [1]>  <dbl [~ <dbl [~ <NUL~ <NUL~
##  3 Refere~ 2011-07-19 Pre-Treatm~ <dbl [~ <dbl [1]>  <dbl [~ <dbl [~ <NUL~ <NUL~
##  4 Refere~ 2011-08-01 Pre-Treatm~ <dbl [~ <dbl [1]>  <dbl [~ <dbl [~ <NUL~ <NUL~
##  5 Refere~ 2011-10-07 Pre-Treatm~ <dbl [~ <dbl [1]>  <dbl [~ <dbl [~ <NUL~ <NUL~
##  6 Refere~ 2011-10-31 Pre-Treatm~ <dbl [~ <dbl [1]>  <dbl [~ <dbl [~ <NUL~ <NUL~
##  7 Refere~ 2011-11-15 Pre-Treatm~ <dbl [~ <dbl [1]>  <dbl [~ <dbl [~ <NUL~ <NUL~
##  8 Refere~ 2011-11-30 Pre-Treatm~ <dbl [~ <dbl [1]>  <dbl [~ <dbl [~ <NUL~ <NUL~
##  9 Refere~ 2011-12-01 Pre-Treatm~ <dbl [~ <dbl [1]>  <dbl [~ <dbl [~ <NUL~ <NUL~
## 10 Refere~ 2012-01-25 Pre-Treatm~ <dbl [~ <dbl [1]>  <dbl [~ <dbl [~ <NUL~ <NUL~
## # ... with 322 more rows
…
Maybe we want to look at the three treatment periods (novel idea).

Table5 <- data1 %>% 
  group_by(Treatment, Analyte, Site) %>% 
  summarize(average=mean(Result, na.rm=T), 
            stdv=sd(Result, na.rm=T),
            max=max(Result, na.rm=T), 
            min=min(Result, na.rm=T), 
            n = n())

## `summarise()` has grouped output by 'Treatment', 'Analyte'. You can override using the `.groups` argument.

Table5

## # A tibble: 36 x 8
## # Groups:   Treatment, Analyte [18]
##    Treatment     Analyte    Site      average    stdv   max    min     n
##    <ord>         <chr>      <chr>       <dbl>   <dbl> <dbl>  <dbl> <int>
##  1 Pre-Treatment Alkalinity Reference -24.4   15.0    11.8  -75.2     54
##  2 Pre-Treatment Alkalinity Treated   -30.5   14.6     6.1  -56.2     46
##  3 Pre-Treatment DOC        Reference   4.46   1.02    7.67   2.85    54
##  4 Pre-Treatment DOC        Treated     5.50   1.58   10.5    2.87    46
##  5 Pre-Treatment Hg         Reference   1.15  NA       1.15   1.15     1
##  6 Pre-Treatment Hg         Treated     1.39   0.141   1.49   1.29     2
##  7 Pre-Treatment MeHg       Reference   0.04  NA       0.04   0.04     1
##  8 Pre-Treatment MeHg       Treated     0.025  0.0212  0.04   0.01     2
##  9 Pre-Treatment pH         Reference   4.60   0.0850  4.91   4.41    54
## 10 Pre-Treatment pH         Treated     4.54   0.0890  4.92   4.4     46
## # ... with 26 more rows
…
